Elementary Interaction			Attributed BioPAX class

affects^reaction			Control
increases/decreases^expression		TemplateReactionRegulation
increases/decreases^activity		Control
affects^binding				Catalysis
affects^folding				Control
other interactions			Interaction
